{
  "name": "client-e2e",
  "$schema": "../../node_modules/nx/schemas/project-schema.json",
  "sourceRoot": "apps/client-e2e/src",
  "projectType": "application",
  "targets": {
    "e2e": {
      "executor": "@nx/cypress:cypress",
      "options": {
        "cypressConfig": "apps/client-e2e/cypress.json",
        "tsConfig": "apps/client-e2e/tsconfig.e2e.json",
        "devServerTarget": "client:serve"
      },
      "configurations": {
        "production": {
          "devServerTarget": "client:serve:production"
        }
      }
    },
    "lint": {
      "executor": "@nx/linter:eslint",
      "options": {
        "lintFilePatterns": ["apps/client-e2e/**/*.{js,ts}"]
      },
      "outputs": ["{options.outputFile}"]
    }
  },
  "tags": [],
  "implicitDependencies": ["client"]
}
